Statistics and Quantitative Methods (S2)
…
---

layout: false
layout: true

## Credible intervals

---

```r
acc_bm_2_draws
```

```
## # A tibble: 12,000 × 2
##    Relation_type  value
##    <fct>          <dbl>
##  1 Unrelated      0.773
##  2 NonConstituent 1.16 
##  3 Constituent    2.18 
##  4 Unrelated      1.22 
##  5 NonConstituent 1.32 
##  6 Constituent    1.92 
##  7 Unrelated      0.881
##  8 NonConstituent 1.46 
##  9 Constituent    1.55 
## 10 Unrelated      0.845
## # … with 11,990 more rows
```
…
